sX, sY, dX, dY, B, R, =>, Rlat, Rlat-opt, WS, WE, stable, TootalWS, TootalWE, period, sustained-WS, sustained-WE
0, 0, 4, 2, 1, 0.040000, =>, 18, 13, 0, 10, True, 0, 34, Prd=25, 0.000, 8.000
1, 0, 3, 4, 1, 0.040000, =>, 28, 18, 0, 10, True, 0, 34, Prd=25, 0.000, 8.000
2, 0, 3, 2, 1, 0.040000, =>, 15, 15, 0, 10, True, 0, 34, Prd=25, 0.000, 8.000
3, 0, 1, 2, 1, 0.040000, =>, 17, 12, 0, 12, True, 0, 36, Prd=25, 0.000, 8.000
4, 0, 0, 2, 1, 0.040000, =>, 15, 10, 0, 10, True, 0, 34, Prd=25, 0.000, 8.000
0, 1, 0, 3, 1, 0.040000, =>, 14, 14, 3, 0, True, 27, 0, Prd=25, 2.000, 0.000
1, 1, 3, 1, 1, 0.040000, =>, 4, 4, 0, 8, True, 0, 32, Prd=25, 0.000, 6.000
2, 1, 2, 0, 1, 0.040000, =>, 26, 11, 4, 0, True, 28, 0, Prd=25, 3.000, 0.000
3, 1, 2, 0, 1, 0.040000, =>, 30, 15, 0, 8, True, 0, 32, Prd=25, 0.000, 6.000
4, 1, 3, 4, 1, 0.040000, =>, 24, 14, 0, 7, True, 0, 31, Prd=25, 0.000, 5.000
0, 2, 1, 4, 1, 0.040000, =>, 15, 10, 0, 12, True, 0, 36, Prd=25, 0.000, 8.000
1, 2, 1, 0, 1, 0.040000, =>, 20, 15, 3, 0, True, 27, 0, Prd=25, 2.000, 0.000
2, 2, 3, 0, 1, 0.040000, =>, 21, 11, 0, 10, True, 0, 34, Prd=25, 0.000, 7.000
3, 2, 4, 4, 1, 0.040000, =>, 15, 10, 0, 12, True, 0, 36, Prd=25, 0.000, 8.000
4, 2, 0, 3, 1, 0.040000, =>, 9, 9, 0, 12, True, 0, 36, Prd=25, 0.000, 8.000
0, 3, 1, 3, 1, 0.040000, =>, 3, 3, 0, 8, True, 0, 32, Prd=25, 0.000, 7.000
1, 3, 4, 3, 1, 0.040000, =>, 5, 5, 0, 8, True, 0, 32, Prd=25, 0.000, 7.000
2, 3, 4, 3, 1, 0.040000, =>, 4, 4, 0, 8, True, 0, 32, Prd=25, 0.000, 7.000
3, 3, 0, 4, 1, 0.040000, =>, 10, 10, 0, 10, True, 0, 34, Prd=25, 0.000, 8.000
4, 3, 4, 1, 1, 0.040000, =>, 20, 10, 4, 0, True, 28, 0, Prd=25, 3.000, 0.000
0, 4, 0, 0, 1, 0.040000, =>, 8, 8, 3, 0, True, 27, 0, Prd=25, 2.000, 0.000
1, 4, 0, 1, 1, 0.040000, =>, 18, 13, 0, 7, True, 0, 31, Prd=25, 0.000, 5.000
2, 4, 2, 3, 1, 0.040000, =>, 26, 11, 5, 0, True, 29, 0, Prd=25, 4.000, 0.000
3, 4, 2, 4, 1, 0.040000, =>, 6, 6, 0, 5, True, 0, 29, Prd=25, 0.000, 4.000
4, 4, 2, 2, 1, 0.040000, =>, 23, 13, 0, 7, True, 0, 31, Prd=25, 0.000, 5.000
