sX, sY, dX, dY, B, R, =>, Rlat, Rlat-opt, WS, WE, stable, TootalWS, TootalWE, period, sustained-WS, sustained-WE
0, 0, 0, 1, 1, 0.040000, =>, 8, 3, 4, 0, True, 28, 0, Prd=25, 3.000, 0.000
1, 0, 3, 3, 1, 0.040000, =>, 22, 17, 0, 7, True, 0, 31, Prd=25, 0.000, 5.000
2, 0, 2, 3, 1, 0.040000, =>, 20, 15, 2, 0, True, 26, 0, Prd=25, 1.000, 0.000
3, 0, 0, 3, 1, 0.040000, =>, 22, 12, 0, 8, True, 0, 32, Prd=25, 0.000, 7.000
4, 0, 4, 2, 1, 0.040000, =>, 14, 14, 3, 0, True, 27, 0, Prd=25, 2.000, 0.000
0, 1, 0, 4, 1, 0.040000, =>, 20, 10, 4, 0, True, 28, 0, Prd=25, 3.000, 0.000
1, 1, 3, 1, 1, 0.040000, =>, 4, 4, 0, 7, True, 0, 31, Prd=25, 0.000, 5.000
2, 1, 4, 0, 1, 0.040000, =>, 28, 13, 0, 8, True, 0, 32, Prd=25, 0.000, 7.000
3, 1, 3, 4, 1, 0.040000, =>, 20, 10, 5, 0, True, 29, 0, Prd=25, 4.000, 0.000
4, 1, 4, 2, 1, 0.040000, =>, 8, 8, 4, 0, True, 28, 0, Prd=25, 3.000, 0.000
0, 2, 0, 0, 1, 0.040000, =>, 20, 15, 4, 0, True, 28, 0, Prd=25, 3.000, 0.000
1, 2, 1, 3, 1, 0.040000, =>, 8, 8, 0, 0, True, 24, 0, Prd=25, 0.000, 0.000
2, 2, 3, 1, 1, 0.040000, =>, 27, 17, 0, 10, True, 0, 34, Prd=25, 0.000, 7.000
3, 2, 4, 1, 1, 0.040000, =>, 27, 12, 0, 10, True, 0, 34, Prd=25, 0.000, 7.000
4, 2, 2, 4, 1, 0.040000, =>, 17, 12, 0, 10, True, 0, 34, Prd=25, 0.000, 7.000
0, 3, 0, 4, 1, 0.040000, =>, 8, 3, 7, 0, True, 31, 0, Prd=25, 5.000, 0.000
1, 3, 2, 3, 1, 0.040000, =>, 3, 3, 0, 12, True, 0, 36, Prd=25, 0.000, 8.000
2, 3, 1, 1, 1, 0.040000, =>, 24, 14, 0, 12, True, 0, 36, Prd=25, 0.000, 8.000
3, 3, 3, 1, 1, 0.040000, =>, 20, 15, 4, 0, True, 28, 0, Prd=25, 3.000, 0.000
4, 3, 0, 3, 1, 0.040000, =>, 3, 3, 0, 12, True, 0, 36, Prd=25, 0.000, 8.000
0, 4, 0, 3, 1, 0.040000, =>, 26, 16, 4, 0, True, 28, 0, Prd=25, 3.000, 0.000
1, 4, 1, 1, 1, 0.040000, =>, 14, 4, 3, 0, True, 27, 0, Prd=25, 2.000, 0.000
2, 4, 2, 0, 1, 0.040000, =>, 8, 3, 2, 0, True, 26, 0, Prd=25, 1.000, 0.000
3, 4, 3, 0, 1, 0.040000, =>, 8, 8, 4, 0, True, 28, 0, Prd=25, 3.000, 0.000
4, 4, 1, 1, 1, 0.040000, =>, 16, 6, 0, 2, True, 0, 26, Prd=25, 0.000, 1.000
